…
This data set represents the production data from the United States from
1970-1986. There are 816 observations across 11 variables.

``` r
#1 Tidying Data
# Wrangling data set 1 by filtering specific years
cigarette1 <- Cigarette %>%  filter(between(year,1985,1986))
cigarette1
```

    ## # A tibble: 96 x 10
    ##     ...1 state  year   cpi      pop packpc    income   tax avgprs  taxs
    ##    <dbl> <chr> <dbl> <dbl>    <dbl>  <dbl>     <dbl> <dbl>  <dbl> <dbl>
    ##  1     1 AL     1985  1.08  3973000   116.  46014968  32.5  102.   33.3
    ##  2     2 AR     1985  1.08  2327000   129.  26210736  37    101.   37  
    ##  3     3 AZ     1985  1.08  3184000   105.  43956936  31    109.   36.2
    ##  4     4 CA     1985  1.08 26444000   100. 447102816  26    108.   32.1
    ##  5     5 CO     1985  1.08  3209000   113.  49466672  31     94.3  31  
    ##  6     6 CT     1985  1.08  3201000   109.  60063368  42    128.   51.5
    ##  7     7 DE     1985  1.08   618000   144.   9927301  30    102.   30  
    ##  8     8 FL     1985  1.08 11352000   122. 166919248  37    115.   42.5
    ##  9     9 GA     1985  1.08  5963000   127.  78364336  28     97.0  28.8
    ## 10    10 IA     1985  1.08  2830000   114.  37902896  34    102.   37.9
    ## # ... with 86 more rows

``` r
# Wrangling data set 2 for certain variables
produc <- Produc1 %>% filter(between(year,1985,1986))
produc
```

    ## # A tibble: 96 x 11
    ##     ...1 state  year    pcap    hwy  water   util      pc    gsp    emp unemp
    ##    <dbl> <chr> <dbl>   <dbl>  <dbl>  <dbl>  <dbl>   <dbl>  <dbl>  <dbl> <dbl>
    ##  1    16 AL     1985  19433.  8726.  2253.  8454.  60688.  46849  1427.   8.9
    ##  2    17 AL     1986  19723.  8813.  2309.  8601.  61629.  48409  1463.   9.8
    ##  3    33 AZ     1985  19415.  6283.  2737. 10395.  39247.  43350  1279.   6.5
    ##  4    34 AZ     1986  20212.  6553.  2923. 10736.  44189.  46058  1338.   6.9
    ##  5    50 AR     1985   9675.  4639.   947.  4089.  33229.  27159   797.   8.7
    ##  6    51 AR     1986   9787.  4653.   961.  4174.  32889.  28168   814.   8.7
    ##  7    67 CA     1985 138171. 43566. 24121. 70483. 324335. 444082 10979    7.2
    ##  8    68 CA     1986 139043. 43351. 24592. 71100. 363780. 464550 11258    6.7
    ##  9    84 CO     1985  18327.  6058.  4153.  8117.  49793.  50820  1419.   5.9
    ## 10    85 CO     1986  18890.  6149.  4340.  8400.  47485.  51781  1408.   7.4
    ## # ... with 86 more rows
…
The variables selected include state which includes most states of the
U.S., year.x and year.y which correspond to produc and cigarette1,
respectively. Unemp is the state unemployment rate, pop is the state
population and packpc is the number of cigarette packs per capita.

``` r
# Observations based on same year across states
yearsim <- cleancigprod %>% mutate(Year = if_else(year.x == year.y, "Equal", "Not Equal")) %>% filter(Year == "Equal") #Creating a variable to filter out the true cases where the years match up 
yearsim
```

    ## # A tibble: 96 x 7
    ##    state year.x year.y unemp      pop packpc Year 
    ##    <chr>  <dbl>  <dbl> <dbl>    <dbl>  <dbl> <chr>
    ##  1 AL      1985   1985   8.9  3973000   116. Equal
    ##  2 AZ      1985   1985   6.5  3184000   105. Equal
    ##  3 AR      1985   1985   8.7  2327000   129. Equal
    ##  4 CA      1985   1985   7.2 26444000   100. Equal
    ##  5 CO      1985   1985   5.9  3209000   113. Equal
    ##  6 CT      1985   1985   4.9  3201000   109. Equal
    ##  7 DE      1985   1985   5.3   618000   144. Equal
    ##  8 FL      1985   1985   6   11352000   122. Equal
    ##  9 GA      1985   1985   6.5  5963000   127. Equal
    ## 10 ID      1985   1985   8     994000   103. Equal
    ## # ... with 86 more rows
…
    ## Rows: 96
    ## Columns: 5
    ## $ state  <chr> "AL", "AZ", "AR", "CA", "CO", "CT", "DE", "FL", "GA", "ID", ...
    ## $ year   <dbl> 1985, 1985, 1985, 1985, 1985, 1985, 1985, 1985, 1985, 1985, ...
    ## $ unemp  <dbl> 8.9, 6.5, 8.7, 7.2, 5.9, 4.9, 5.3, 6.0, 6.5, 8.0, 9.0, 7.9, ...
    ## $ pop    <dbl> 3973000, 3184000, 2327000, 26444000, 3209000, 3201000, 61800...
    ## $ packpc <dbl> 116.4863, 104.5226, 128.5346, 100.3630, 112.9635, 109.2784, ...

``` r
# New variable representing packs of cigarettes consumed for each state population 
clean1 <- clean %>% mutate(Packsperpop = packpc*pop)
clean1
```

    ## # A tibble: 96 x 6
    ##    state  year unemp      pop packpc Packsperpop
    ##    <chr> <dbl> <dbl>    <dbl>  <dbl>       <dbl>
    ##  1 AL     1985   8.9  3973000   116.  462800000.
    ##  2 AZ     1985   6.5  3184000   105.  332800001.
    ##  3 AR     1985   8.7  2327000   129.  299099995.
    ##  4 CA     1985   7.2 26444000   100. 2654000153.
    ##  5 CO     1985   5.9  3209000   113.  362499997.
    ##  6 CT     1985   4.9  3201000   109.  349800001.
    ##  7 DE     1985   5.3   618000   144.   88900002.
    ##  8 FL     1985   6   11352000   122. 1387000095.
    ##  9 GA     1985   6.5  5963000   127.  758700034.
    ## 10 ID     1985   8     994000   103.  102400004.
    ## # ... with 86 more rows
…
These summary statistics represent the overall mean of each variable
regardless of state or year in the United States. Therefore, the average
unemployment rate across the states between 1985-1986 was 6.99, the mean
population was 4934031 people, the mean packs of cigarette consumption
per capita was 120, and the mean packs of cigarettes across the
population was 584267715.

``` r
# Summary statistics based on state between 1985-1986
clean1 %>% group_by(state) %>%summarize(mean(pop), mean(unemp), mean(packpc), mean(Packsperpop)) 
```

    ## # A tibble: 48 x 5
    ##    state `mean(pop)` `mean(unemp)` `mean(packpc)` `mean(Packsperpop)`
    ##  * <chr>       <dbl>         <dbl>          <dbl>               <dbl>
    ##  1 AL        3982500          9.35          117.           465249997.
    ##  2 AR        2329500          8.7           128.           298399996.
    ##  3 AZ        3246500          6.7           104.           337299997.
    ##  4 CA       26775000          6.95           98.4         2633050093.
    ##  5 CO        3223500          6.65          111.           358099995.
    ##  6 CT        3212500          4.35          108.           347000002.
    ##  7 DE         623000          4.8           142.            88650000.
    ##  8 FL       11510500          5.85          121.          1397250064.
    ##  9 GA        6024000          6.2           127.           764450012.
    ## 10 IA        2811000          7.5           111.           311400003.
    ## # ... with 38 more rows
…
